…
> ### Name: get_gambl_metadata
> ### Title: Get GAMBL metadata.
> ### Aliases: get_gambl_metadata
> 
> ### ** Examples
> 
> #basic usage
> my_metadata = suppressMessages(get_gambl_metadata())

> dplyr::group_by(my_metadata,pathology,seq_type) %>% dplyr::count()
# A tibble: 63 × 3
# Groups:   pathology, seq_type [63]
   pathology seq_type     n
   <chr>     <chr>    <int>
 1 AITL      capture      2
 2 AITL      mrna        22
 3 ALCL      capture    102
 4 B-ALL     genome       1
 5 BL        capture    174
 6 BL        genome     259
 7 BL        mrna       279
 8 CLL       genome     213
 9 CLL       mrna       157
10 COMFL     capture      1
# ℹ 53 more rows
# ℹ Use `print(n = ...)` to see more rows
…
