What's new in GAMBLR • GAMBLR.results
…
prettyChromoplot(scores_path = "scores.gistic",
                 labels_bed = gene_bed)
#> Rows: 31533 Columns: 8
#> ── Column specification ────────────────────────────────────────────────────────
#> Delimiter: "\t"
#> chr (1): Type
#> dbl (7): Chromosome, Start, End, -log10(q-value), G-score, average amplitude...
#> 
#> ℹ Use `spec()` to retrieve the full column specification for this data.
#> ℹ Specify the column types or set `show_col_types = FALSE` to quiet this message.
#> Running in default mode of any...
#> # A tibble: 31,533 × 15
#>    Chromosome  Start    End `-log10(q-value)` `G-score` `average amplitude`
#>    <chr>       <dbl>  <dbl>             <dbl>     <dbl>               <dbl>
#>  1 1           10001 768252                 0    0.0650               0.296
#>  2 1          768253 768447                 0    0.0685               0.330
#>  3 1          768448 769962                 0    0.0680               0.332
#>  4 1          769963 770180                 0    0.0738               0.344
#>  5 1          770181 770734                 0    0.0747               0.349
#>  6 1          770735 771656                 0    0.0751               0.347
#>  7 1          771657 773105                 0    0.0793               0.357
#>  8 1          773106 776545                 0    0.0904               0.396
#>  9 1          776546 783070                 0    0.0864               0.480
#> 10 1          783071 785521                 0    0.0874               0.469
#> # ℹ 31,523 more rows
#> # ℹ 9 more variables: frequency <dbl>, Type <chr>, fill <chr>, start <dbl>,
#> #   end <dbl>, name <chr>, hugo_symbol <chr>, length <dbl>, mid <dbl>
…
